waveform_mixed.vcd
$date
	Sat Jun 28 21:43:38 2025
$end
$version
	Icarus Verilog
$end
$timescale
	1ps
$end
$scope module Top_mixed_tb $end
$var reg 1 ! CLK $end
$var integer 32 " i [31:0] $end
$scope module uut $end
$var wire 1 ! CLK $end
$var wire 1 # zero $end
$var wire 32 $ WD3_M3 [31:0] $end
$var wire 32 % RF_ALU [31:0] $end
$var wire 32 & RD_Instr [31:0] $end
$var wire 32 ' RD2_M2_WD [31:0] $end
$var wire 32 ( PC_M1 [31:0] $end
$var wire 32 ) PC_A1_A2_IM [31:0] $end
$var wire 32 * M2_ALU [31:0] $end
$var wire 32 + E_M2_A2 [31:0] $end
$var wire 32 , DM_M3 [31:0] $end
$var wire 1 - CU_RF $end
$var wire 1 . CU_M3 $end
$var wire 1 / CU_M2 $end
$var wire 1 0 CU_M1 $end
$var wire 2 1 CU_Extend [1:0] $end
$var wire 1 2 CU_DM $end
$var wire 3 3 CU_ALU [2:0] $end
$var wire 32 4 ALU_DM_M3 [31:0] $end
$var wire 32 5 A2_M1 [31:0] $end
$var wire 32 6 A1_M1 [31:0] $end
$scope module A1 $end
$var wire 32 7 PCPlus4 [31:0] $end
$var wire 32 8 PC [31:0] $end
$upscope $end
$scope module A2 $end
$var wire 32 9 PCTarget [31:0] $end
$var wire 32 : PC [31:0] $end
$var wire 32 ; ImmExt [31:0] $end
$upscope $end
$scope module ALU $end
$var wire 1 # Zero $end
$var wire 32 < SrcB [31:0] $end
$var wire 32 = SrcA [31:0] $end
$var wire 3 > ALUControl [2:0] $end
$var reg 32 ? ALUResult [31:0] $end
$upscope $end
$scope module CU $end
$var wire 1 0 PCSrc $end
$var wire 1 # Zero $end
$var wire 3 @ funct3 [2:0] $end
$var wire 1 A funct7b5 $end
$var wire 7 B op [6:0] $end
$var wire 1 C opb5 $end
$var wire 1 . ResultSrc $end
$var wire 1 - RegWrite $end
$var wire 1 2 MemWrite $end
$var wire 2 D ImmSrc [1:0] $end
$var wire 1 E Branch $end
$var wire 1 / ALUSrc $end
$var wire 2 F ALUOp [1:0] $end
$var wire 3 G ALUControl [2:0] $end
$scope module alu_decoder $end
$var wire 3 H funct3 [2:0] $end
$var wire 1 A funct7b5 $end
$var wire 1 C opb5 $end
$var wire 2 I ALUOp [1:0] $end
$var reg 3 J ALUControl [2:0] $end
$upscope $end
$scope module main_decoder $end
$var wire 7 K op [6:0] $end
$var reg 2 L ALUOp [1:0] $end
$var reg 1 / ALUSrc $end
$var reg 1 E Branch $end
$var reg 2 M ImmSrc [1:0] $end
$var reg 1 2 MemWrite $end
$var reg 1 - RegWrite $end
$var reg 1 . ResultSrc $end
$upscope $end
$upscope $end
$scope module DM $end
$var wire 32 N A [31:0] $end
$var wire 1 ! CLK $end
$var wire 32 O RD [31:0] $end
$var wire 1 2 WE $end
$var wire 32 P WD [31:0] $end
$upscope $end
$scope module E $end
$var wire 2 Q ImmSrc [1:0] $end
$var wire 25 R Instr [31:7] $end
$var reg 32 S ImmExt [31:0] $end
$upscope $end
$scope module IM $end
$var wire 32 T RD [31:0] $end
$var wire 32 U A [31:0] $end
$upscope $end
$scope module M1 $end
$var wire 32 V PCPlus4 [31:0] $end
$var wire 1 0 PCSrc $end
$var wire 32 W PCTarget [31:0] $end
$var wire 32 X PCNext [31:0] $end
$upscope $end
$scope module M2 $end
$var wire 1 / ALUSrc $end
$var wire 32 Y ImmExt [31:0] $end
$var wire 32 Z SrcB [31:0] $end
$var wire 32 [ RD2 [31:0] $end
$upscope $end
$scope module M3 $end
$var wire 32 \ ALUResult [31:0] $end
$var wire 32 ] RD [31:0] $end
$var wire 1 . ResultSrc $end
$var wire 32 ^ Result [31:0] $end
$upscope $end
$scope module PC $end
$var wire 1 ! CLK $end
$var wire 32 _ PCNext [31:0] $end
$var reg 32 ` PC [31:0] $end
$upscope $end
$scope module RF $end
$var wire 5 a A1 [4:0] $end
$var wire 5 b A2 [4:0] $end
$var wire 5 c A3 [4:0] $end
$var wire 1 ! CLK $end
$var wire 32 d RD1 [31:0] $end
$var wire 32 e RD2 [31:0] $end
$var wire 32 f WD3 [31:0] $end
$var wire 1 - WE3 $end
$upscope $end
$upscope $end
$upscope $end
$enddefinitions $end
$comment Show the parameter values. $end
$dumpall
$end
#0
$dumpvars
b101 f
b0 e
b0 d
b1 c
b101 b
b0 a
b0 `
b100 _
b101 ^
bx ]
b101 \
b0 [
b101 Z
b101 Y
b100 X
b101 W
b100 V
b0 U
b10100000000000010010011 T
b101 S
b1010000000000001 R
b0 Q
b0 P
bx O
b101 N
b0 M
b10 L
b10011 K
b0 J
b10 I
b0 H
b0 G
b10 F
0E
b0 D
0C
b10011 B
0A
b0 @
b101 ?
b0 >
b0 =
b101 <
b101 ;
b0 :
b101 9
b0 8
b100 7
b100 6
b101 5
b101 4
b0 3
02
b0 1
00
1/
0.
1-
bx ,
b101 +
b101 *
b0 )
b100 (
b0 '
b10100000000000010010011 &
b0 %
b101 $
0#
b100000 "
0!
$end
#5000
b111 $
b111 ^
b111 f
b111 4
b111 ?
b111 N
b111 \
b111 *
b111 <
b111 Z
b111 +
b111 ;
b111 S
b111 Y
b1110000000000010 R
b10 c
b111 b
b11100000000000100010011 &
b11100000000000100010011 T
b1000 (
b1000 X
b1000 _
b1011 5
b1011 9
b1011 W
b1000 6
b1000 7
b1000 V
b100 )
b100 8
b100 :
b100 U
b100 `
1!
#10000
0!
#15000
b111 *
b111 <
b111 Z
b1100 $
b1100 ^
b1100 f
1C
b10 F
b10 I
b10 L
1-
0/
b10 +
b10 ;
b10 S
b10 Y
b1100 4
b1100 ?
b1100 N
b1100 \
b110011 B
b110011 K
b100000100000011 R
b11 c
b111 '
b111 P
b111 [
b111 e
b10 b
b101 %
b101 =
b101 d
b1 a
b1000001000000110110011 &
b1000001000000110110011 T
b1100 (
b1100 X
b1100 _
b1010 5
b1010 9
b1010 W
b1100 6
b1100 7
b1100 V
b1000 )
b1000 8
b1000 :
b1000 U
b1000 `
1!
#20000
0!
#25000
b111 $
b111 ^
b111 f
b1 3
b1 >
b1 G
b1 J
b10000000001 +
b10000000001 ;
b10000000001 S
b10000000001 Y
b101 *
b101 <
b101 Z
b111 4
b111 ?
b111 N
b111 \
1A
b100000000010001100000100 R
b100 c
b101 '
b101 P
b101 [
b101 e
b1 b
b1100 %
b1100 =
b1100 d
b11 a
b1000000000100011000001000110011 &
b1000000000100011000001000110011 T
b10000 (
b10000 X
b10000 _
b10000001101 5
b10000001101 9
b10000001101 W
b10000 6
b10000 7
b10000 V
b1100 )
b1100 8
b1100 :
b1100 U
b1100 `
1!
#30000
0!
#35000
0#
b101 $
b101 ^
b101 f
b10 3
b10 >
b10 G
b10 J
b10 +
b10 ;
b10 S
b10 Y
b111 *
b111 <
b111 Z
b101 4
b101 ?
b101 N
b101 \
0A
b111 @
b111 H
b100000111100101 R
b101 c
b111 '
b111 P
b111 [
b111 e
b10 b
b101 %
b101 =
b101 d
b1 a
b1000001111001010110011 &
b1000001111001010110011 T
b10100 (
b10100 X
b10100 _
b10010 5
b10010 9
b10010 W
b10100 6
b10100 7
b10100 V
b10000 )
b10000 8
b10000 :
b10000 U
b10000 `
1!
#40000
0!
#45000
b111 $
b111 ^
b111 f
b111 4
b111 ?
b111 N
b111 \
b11 3
b11 >
b11 G
b11 J
b110 @
b110 H
b100000111000110 R
b110 c
b1000001110001100110011 &
b1000001110001100110011 T
b11000 (
b11000 X
b11000 _
b10110 5
b10110 9
b10110 W
b11000 6
b11000 7
b11000 V
b10100 )
b10100 8
b10100 :
b10100 U
b10100 `
1!
#50000
0!
#55000
b1 $
b1 ^
b1 f
b1 4
b1 ?
b1 N
b1 \
b101 3
b101 >
b101 G
b101 J
b10 @
b10 H
b100000101000111 R
b111 c
b1000001010001110110011 &
b1000001010001110110011 T
b11100 (
b11100 X
b11100 _
b11010 5
b11010 9
b11010 W
b11100 6
b11100 7
b11100 V
b11000 )
b11000 8
b11000 :
b11000 U
b11000 `
1!
#60000
0!
#65000
1#
b0 $
b0 ^
b0 f
b0 4
b0 ?
b0 N
b0 \
b0 3
b0 >
b0 G
b0 J
12
1/
b1 1
b1 D
b1 M
b1 Q
b0 F
b0 I
b0 L
0-
b0 +
b0 ;
b0 S
b0 Y
b0 *
b0 <
b0 Z
b100011 B
b100011 K
b110000001000000 R
b0 c
b1100 '
b1100 P
b1100 [
b1100 e
b11 b
b0 %
b0 =
b0 d
b0 a
b1100000010000000100011 &
b1100000010000000100011 T
b100000 (
b100000 X
b100000 _
b11100 5
b11100 9
b11100 W
b100000 6
b100000 7
b100000 V
b11100 )
b11100 8
b11100 :
b11100 U
b11100 `
1!
#70000
0!
#75000
1#
b1100 $
b1100 ^
b1100 f
b0 4
b0 ?
b0 N
b0 \
b0 *
b0 <
b0 Z
0C
1.
1-
b0 1
b0 D
b0 M
b0 Q
1/
02
b0 +
b0 ;
b0 S
b0 Y
b11 B
b11 K
b1001000 R
b1000 c
b0 '
b0 P
b0 [
b0 e
b0 b
b10010000000011 &
b10010000000011 T
b100100 (
b100100 X
b100100 _
b1100 ,
b1100 O
b1100 ]
b100000 5
b100000 9
b100000 W
b100100 6
b100100 7
b100100 V
b100000 )
b100000 8
b100000 :
b100000 U
b100000 `
1!
#80000
0!
#85000
10
b0 $
b0 ^
b0 f
b101 *
b101 <
b101 Z
1#
b1100 ,
b1100 O
b1100 ]
b1 3
b1 >
b1 G
b1 J
1C
b1 F
b1 I
b1 L
1E
b10 1
b10 D
b10 M
b10 Q
0-
0/
0.
b1000 +
b1000 ;
b1000 S
b1000 Y
b0 4
b0 ?
b0 N
b0 \
b0 @
b0 H
b1100011 B
b1100011 K
b10000100001000 R
b101 '
b101 P
b101 [
b101 e
b1 b
b101 %
b101 =
b101 d
b1 a
b100001000010001100011 &
b100001000010001100011 T
b101100 (
b101100 X
b101100 _
b101100 5
b101100 9
b101100 W
b101000 6
b101000 7
b101000 V
b100100 )
b100100 8
b100100 :
b100100 U
b100100 `
1!
#90000
0!
#95000
b0 3
b0 >
b0 G
b0 J
00
0#
bx ,
bx O
bx ]
b1111011 $
b1111011 ^
b1111011 f
0C
1/
1-
b10 F
b10 I
b10 L
b0 1
b0 D
b0 M
b0 Q
0E
b1111011 +
b1111011 ;
b1111011 S
b1111011 Y
b1111011 *
b1111011 <
b1111011 Z
b1111011 4
b1111011 ?
b1111011 N
b1111011 \
b10011 B
b10011 K
b11110110000000001010 R
b1010 c
b0 '
b0 P
b0 [
b0 e
b11011 b
b0 %
b0 =
b0 d
b0 a
b111101100000000010100010011 &
b111101100000000010100010011 T
b110000 (
b110000 X
b110000 _
b10100111 5
b10100111 9
b10100111 W
b110000 6
b110000 7
b110000 V
b101100 )
b101100 8
b101100 :
b101100 U
b101100 `
1!
#100000
0!
#105000
bx *
bx <
bx Z
x#
bx $
bx ^
bx f
xC
b0 F
b0 I
b0 L
0-
0/
bx +
bx ;
bx S
bx Y
bx 4
bx ?
bx N
bx \
xA
bx @
bx H
bx B
bx K
bx R
bx c
bx '
bx P
bx [
bx e
bx b
bx %
bx =
bx d
bx a
bx &
bx T
b110100 (
b110100 X
b110100 _
bx 5
bx 9
bx W
b110100 6
b110100 7
b110100 V
b110000 )
b110000 8
b110000 :
b110000 U
b110000 `
1!
#110000
0!
#115000
0#
bx ,
bx O
bx ]
b11011110 $
b11011110 ^
b11011110 f
b11011110 4
b11011110 ?
b11011110 N
b11011110 \
0C
b10 F
b10 I
b10 L
1/
1-
b100010010 5
b100010010 9
b100010010 W
b11011110 +
b11011110 ;
b11011110 S
b11011110 Y
b11011110 *
b11011110 <
b11011110 Z
0A
b0 @
b0 H
b10011 B
b10011 K
b110111100000000001011 R
b1011 c
b0 '
b0 P
b0 [
b0 e
b11110 b
b0 %
b0 =
b0 d
b0 a
b1101111000000000010110010011 &
b1101111000000000010110010011 T
b111000 (
b111000 X
b111000 _
b111000 6
b111000 7
b111000 V
b110100 )
b110100 8
b110100 :
b110100 U
b110100 `
1!
#120000
0!
#125000
b1000101011 $
b1000101011 ^
b1000101011 f
b1000101011 4
b1000101011 ?
b1000101011 N
b1000101011 \
b1000101011 *
b1000101011 <
b1000101011 Z
b1000101011 +
b1000101011 ;
b1000101011 S
b1000101011 Y
b10001010110000000001100 R
b1100 c
b11011110 '
b11011110 P
b11011110 [
b11011110 e
b1011 b
b100010101100000000011000010011 &
b100010101100000000011000010011 T
b111100 (
b111100 X
b111100 _
b1001100011 5
b1001100011 9
b1001100011 W
b111100 6
b111100 7
b111100 V
b111000 )
b111000 8
b111000 :
b111000 U
b111000 `
1!
#130000
0!
#135000
bx *
bx <
bx Z
x#
bx $
bx ^
bx f
xC
b0 F
b0 I
b0 L
0-
0/
bx +
bx ;
bx S
bx Y
bx 4
bx ?
bx N
bx \
xA
bx @
bx H
bx B
bx K
bx R
bx c
bx '
bx P
bx [
bx e
bx b
bx %
bx =
bx d
bx a
bx &
bx T
b1000000 (
b1000000 X
b1000000 _
bx 5
bx 9
bx W
b1000000 6
b1000000 7
b1000000 V
b111100 )
b111100 8
b111100 :
b111100 U
b111100 `
1!
#140000
0!
#145000
b1000100 (
b1000100 X
b1000100 _
b1000100 6
b1000100 7
b1000100 V
b1000000 )
b1000000 8
b1000000 :
b1000000 U
b1000000 `
1!
#150000
0!
#155000
b1001000 (
b1001000 X
b1001000 _
b1001000 6
b1001000 7
b1001000 V
b1000100 )
b1000100 8
b1000100 :
b1000100 U
b1000100 `
1!
#160000
0!
#165000
b1001100 (
b1001100 X
b1001100 _
b1001100 6
b1001100 7
b1001100 V
b1001000 )
b1001000 8
b1001000 :
b1001000 U
b1001000 `
1!
#170000
0!
#175000
b1010000 (
b1010000 X
b1010000 _
b1010000 6
b1010000 7
b1010000 V
b1001100 )
b1001100 8
b1001100 :
b1001100 U
b1001100 `
1!
#180000
0!
#185000
b1010100 (
b1010100 X
b1010100 _
b1010100 6
b1010100 7
b1010100 V
b1010000 )
b1010000 8
b1010000 :
b1010000 U
b1010000 `
1!
#190000
0!
#195000
b1011000 (
b1011000 X
b1011000 _
b1011000 6
b1011000 7
b1011000 V
b1010100 )
b1010100 8
b1010100 :
b1010100 U
b1010100 `
1!
#200000
0!
#205000
b1011100 (
b1011100 X
b1011100 _
b1011100 6
b1011100 7
b1011100 V
b1011000 )
b1011000 8
b1011000 :
b1011000 U
b1011000 `
1!
#210000
0!
#215000
b1100000 (
b1100000 X
b1100000 _
b1100000 6
b1100000 7
b1100000 V
b1011100 )
b1011100 8
b1011100 :
b1011100 U
b1011100 `
1!
#220000
0!
#225000
b1100100 (
b1100100 X
b1100100 _
b1100100 6
b1100100 7
b1100100 V
b1100000 )
b1100000 8
b1100000 :
b1100000 U
b1100000 `
1!
#230000
0!
#235000
b1101000 (
b1101000 X
b1101000 _
b1101000 6
b1101000 7
b1101000 V
b1100100 )
b1100100 8
b1100100 :
b1100100 U
b1100100 `
1!
#240000
0!
#245000
b1101100 (
b1101100 X
b1101100 _
b1101100 6
b1101100 7
b1101100 V
b1101000 )
b1101000 8
b1101000 :
b1101000 U
b1101000 `
1!
#250000
0!
#255000
b1110000 (
b1110000 X
b1110000 _
b1110000 6
b1110000 7
b1110000 V
b1101100 )
b1101100 8
b1101100 :
b1101100 U
b1101100 `
1!
#260000
0!
#265000
b1110100 (
b1110100 X
b1110100 _
b1110100 6
b1110100 7
b1110100 V
b1110000 )
b1110000 8
b1110000 :
b1110000 U
b1110000 `
1!
#270000
0!
#275000
b1111000 (
b1111000 X
b1111000 _
b1111000 6
b1111000 7
b1111000 V
b1110100 )
b1110100 8
b1110100 :
b1110100 U
b1110100 `
1!
#280000
0!
#285000
b1111100 (
b1111100 X
b1111100 _
b1111100 6
b1111100 7
b1111100 V
b1111000 )
b1111000 8
b1111000 :
b1111000 U
b1111000 `
1!
#290000
0!
#295000
b10000000 (
b10000000 X
b10000000 _
b10000000 6
b10000000 7
b10000000 V
b1111100 )
b1111100 8
b1111100 :
b1111100 U
b1111100 `
1!
#300000
0!
#305000
b10000100 (
b10000100 X
b10000100 _
b10000100 6
b10000100 7
b10000100 V
b10000000 )
b10000000 8
b10000000 :
b10000000 U
b10000000 `
1!
#310000
0!
#315000
b10001000 (
b10001000 X
b10001000 _
b10001000 6
b10001000 7
b10001000 V
b10000100 )
b10000100 8
b10000100 :
b10000100 U
b10000100 `
1!
#320000
0!
#325000
b10001100 (
b10001100 X
b10001100 _
b10001100 6
b10001100 7
b10001100 V
b10001000 )
b10001000 8
b10001000 :
b10001000 U
b10001000 `
1!
#330000
0!
#335000
b10010000 (
b10010000 X
b10010000 _
b10010000 6
b10010000 7
b10010000 V
b10001100 )
b10001100 8
b10001100 :
b10001100 U
b10001100 `
1!
#340000
0!
#345000
b10010100 (
b10010100 X
b10010100 _
b10010100 6
b10010100 7
b10010100 V
b10010000 )
b10010000 8
b10010000 :
b10010000 U
b10010000 `
1!
#350000
0!
#355000
b10011000 (
b10011000 X
b10011000 _
b10011000 6
b10011000 7
b10011000 V
b10010100 )
b10010100 8
b10010100 :
b10010100 U
b10010100 `
1!
#360000
0!
#365000
b10011100 (
b10011100 X
b10011100 _
b10011100 6
b10011100 7
b10011100 V
b10011000 )
b10011000 8
b10011000 :
b10011000 U
b10011000 `
1!
#370000
0!
#375000
b10100000 (
b10100000 X
b10100000 _
b10100000 6
b10100000 7
b10100000 V
b10011100 )
b10011100 8
b10011100 :
b10011100 U
b10011100 `
1!
#380000
0!
#385000
b10100100 (
b10100100 X
b10100100 _
b10100100 6
b10100100 7
b10100100 V
b10100000 )
b10100000 8
b10100000 :
b10100000 U
b10100000 `
1!
#390000
0!
#395000
b10101000 (
b10101000 X
b10101000 _
b10101000 6
b10101000 7
b10101000 V
b10100100 )
b10100100 8
b10100100 :
b10100100 U
b10100100 `
1!
#400000
0!
b100000 "
